<svg xmlns="http://www.w3.org/2000/svg" viewBox="772 2237 40 39.773">
  <defs>
    <style>
      .cls-1 {
        fill: none;
      }
    </style>
  </defs>
  <g id="Group_42" data-name="Group 42" transform="translate(772 2237)">
    <path id="Path_25" data-name="Path 25" class="cls-1" d="M12.77,20.218c.455-.8.057-2.33-1.023-3.977A15.871,15.871,0,0,0,9.3,13.4a18.03,18.03,0,0,0-4.2,7.1,14.943,14.943,0,0,0,4.432.8C11.18,21.3,12.373,20.9,12.77,20.218Z" transform="translate(-2.202 -5.786)"/>
    <path id="Path_26" data-name="Path 26" class="cls-1" d="M12.814,43.78c-.4-.682-1.591-1.08-3.182-1.08a16.409,16.409,0,0,0-4.432.739,17.022,17.022,0,0,0,4.2,7.1A15.872,15.872,0,0,0,11.848,47.7C12.927,46.109,13.325,44.575,12.814,43.78Z" transform="translate(-2.245 -18.439)"/>
    <path id="Path_27" data-name="Path 27" class="cls-1" d="M31.848,10.732c1.364,0,3.182-2.386,4.148-6.42A16.59,16.59,0,0,0,31.848,3.8a16.925,16.925,0,0,0-4.148.511C28.666,8.345,30.484,10.732,31.848,10.732Z" transform="translate(-11.961 -1.641)"/>
    <path id="Path_28" data-name="Path 28" class="cls-1" d="M51.232,20.261c.4.682,1.591,1.08,3.182,1.08a16.409,16.409,0,0,0,4.432-.739,17.022,17.022,0,0,0-4.2-7.1A15.871,15.871,0,0,0,52.2,16.341C51.118,17.932,50.721,19.466,51.232,20.261Z" transform="translate(-22.027 -5.83)"/>
    <path id="Path_29" data-name="Path 29" class="cls-1" d="M31.848,54c-1.364,0-3.182,2.386-4.148,6.42a16.59,16.59,0,0,0,4.148.511A16.924,16.924,0,0,0,36,60.42C35.03,56.386,33.211,54,31.848,54Z" transform="translate(-11.961 -23.318)"/>
    <path id="Path_30" data-name="Path 30" class="cls-1" d="M34.027,20.332c-2.386,0-4.261-.739-5.17-2.216-1.42-2.386.227-6.136,3.75-9.489A17.969,17.969,0,0,0,27.834,5.9c-1.136,4.773-3.523,8.011-6.307,8.011s-5.17-3.3-6.307-8.011A17.64,17.64,0,0,0,10.5,8.627c3.523,3.409,5.114,7.1,3.75,9.489-.852,1.477-2.727,2.216-5.17,2.216a17.08,17.08,0,0,1-5-.852A16.8,16.8,0,0,0,3.8,22.434a23.939,23.939,0,0,0,.227,2.9,16.246,16.246,0,0,1,4.943-.8c2.386,0,4.261.739,5.17,2.216,1.42,2.386-.227,6.136-3.75,9.489a17.969,17.969,0,0,0,4.773,2.727c1.193-4.773,3.58-8.011,6.364-8.011s5.17,3.3,6.307,8.011a17.64,17.64,0,0,0,4.716-2.727c-3.523-3.409-5.114-7.1-3.75-9.489.852-1.477,2.727-2.216,5.17-2.216h0a17.08,17.08,0,0,1,5,.852,16.822,16.822,0,0,0,.227-2.955,23.938,23.938,0,0,0-.227-2.9A18.209,18.209,0,0,1,34.027,20.332ZM23.573,24.48a2.893,2.893,0,1,1,0-4.091A2.881,2.881,0,0,1,23.573,24.48Z" transform="translate(-1.641 -2.548)"/>
    <path id="Path_31" data-name="Path 31" class="cls-1" d="M54.441,42h0v.4c-1.591,0-2.784.4-3.182,1.08-.455.8-.057,2.33,1.023,3.977A15.871,15.871,0,0,0,54.725,50.3a18.03,18.03,0,0,0,4.2-7.1,14.943,14.943,0,0,0-4.432-.8V42Z" transform="translate(-22.055 -18.136)"/>
    <path id="Path_32" data-name="Path 32" class="cls-1" d="M57,38.87v0Z" transform="translate(-24.614 -16.711)"/>
    <path id="Path_33" data-name="Path 33" d="M39.432,16.193a15.866,15.866,0,0,0-.568-2.216,19.3,19.3,0,0,0-4.6-7.784,15.238,15.238,0,0,0-1.7-1.591,19.837,19.837,0,0,0-6.023-3.466A16.175,16.175,0,0,0,24.318.511,18.579,18.579,0,0,0,19.886,0a20.272,20.272,0,0,0-4.545.511c-.739.17-1.477.4-2.216.625A19.837,19.837,0,0,0,7.1,4.6c-.568.511-1.136,1.023-1.7,1.591A20.443,20.443,0,0,0,.909,13.977c-.227.739-.4,1.477-.568,2.216a20.175,20.175,0,0,0,0,7.386A15.866,15.866,0,0,0,.909,25.8a19.3,19.3,0,0,0,4.6,7.784,15.238,15.238,0,0,0,1.7,1.591,19.837,19.837,0,0,0,6.023,3.466,16.174,16.174,0,0,0,2.216.625,20.458,20.458,0,0,0,9.091,0c.739-.17,1.477-.4,2.216-.625a19.837,19.837,0,0,0,6.023-3.466c.568-.511,1.136-1.023,1.7-1.591a19.3,19.3,0,0,0,4.6-7.784c.227-.739.4-1.477.568-2.216A19.846,19.846,0,0,0,40,19.886C39.773,18.636,39.659,17.386,39.432,16.193ZM32.67,7.614a18.03,18.03,0,0,1,4.2,7.1,14.733,14.733,0,0,1-4.432.739c-1.591,0-2.784-.4-3.182-1.08-.455-.8-.057-2.33,1.023-3.977A13,13,0,0,1,32.67,7.614ZM19.886,2.159a16.925,16.925,0,0,1,4.148.511c-.966,4.034-2.784,6.42-4.148,6.42S16.7,6.7,15.739,2.67A20.2,20.2,0,0,1,19.886,2.159ZM7.159,7.614A15.872,15.872,0,0,1,9.6,10.455c1.08,1.648,1.477,3.182,1.023,3.977-.4.682-1.591,1.08-3.182,1.08a14.638,14.638,0,0,1-4.432-.8A16.666,16.666,0,0,1,7.159,7.614ZM7.1,32.159A17.737,17.737,0,0,1,2.955,25a14.734,14.734,0,0,1,4.432-.739c1.591,0,2.784.4,3.182,1.08.455.8.057,2.33-1.023,3.977A13.859,13.859,0,0,1,7.1,32.159Zm12.784,5.4a16.925,16.925,0,0,1-4.148-.511c.966-3.977,2.784-6.364,4.148-6.364s3.182,2.386,4.148,6.42A20.163,20.163,0,0,1,19.886,37.557Zm12.727-5.4a15.871,15.871,0,0,1-2.443-2.841c-1.08-1.648-1.477-3.182-1.023-3.977.4-.682,1.591-1.08,3.182-1.08v-.4h0v.4a14.638,14.638,0,0,1,4.432.8A16.666,16.666,0,0,1,32.614,32.159Zm4.716-9.318a16.492,16.492,0,0,0-5-.852v.17h0v-.17h0c-2.386,0-4.261.739-5.17,2.216-1.42,2.386.227,6.136,3.75,9.489a18.567,18.567,0,0,1-4.716,2.727c-1.136-4.773-3.523-8.011-6.307-8.011s-5.17,3.3-6.307,8.011a17.969,17.969,0,0,1-4.773-2.727c3.523-3.409,5.114-7.1,3.75-9.489-.852-1.477-2.727-2.216-5.17-2.216a18.209,18.209,0,0,0-4.943.8,16.162,16.162,0,0,1-.284-2.9,24.9,24.9,0,0,1,.227-2.955,16.492,16.492,0,0,0,5,.852c2.386,0,4.261-.739,5.17-2.216,1.42-2.386-.227-6.136-3.75-9.489a18.567,18.567,0,0,1,4.716-2.727c1.193,4.773,3.58,8.011,6.364,8.011s5.17-3.3,6.307-8.011A17.969,17.969,0,0,1,30.966,6.08c-3.523,3.409-5.114,7.1-3.75,9.489.852,1.477,2.727,2.216,5.17,2.216a18.209,18.209,0,0,0,4.943-.8,16.6,16.6,0,0,1,.227,2.9A12.715,12.715,0,0,1,37.33,22.841Z"/>
    <circle id="Ellipse_17" data-name="Ellipse 17" cx="2.898" cy="2.898" r="2.898" transform="translate(15.788 19.887) rotate(-45)"/>
  </g>
</svg>
