<svg xmlns="http://www.w3.org/2000/svg" viewBox="973 6249 22 22">
  <g id="instagram-logo" transform="translate(973 6249)">
    <path id="Path_42" data-name="Path 42" d="M15.929,0H6.071A6.078,6.078,0,0,0,0,6.071v9.858A6.078,6.078,0,0,0,6.071,22h9.858A6.078,6.078,0,0,0,22,15.929V6.071A6.078,6.078,0,0,0,15.929,0Zm4.12,15.929a4.124,4.124,0,0,1-4.119,4.119H6.071a4.124,4.124,0,0,1-4.119-4.119V6.071A4.124,4.124,0,0,1,6.071,1.952h9.858a4.124,4.124,0,0,1,4.119,4.119v9.858Z"/>
    <path id="Path_43" data-name="Path 43" d="M46.637,40.97a5.669,5.669,0,1,0,5.669,5.669A5.675,5.675,0,0,0,46.637,40.97Zm0,9.385a3.717,3.717,0,1,1,3.717-3.717A3.721,3.721,0,0,1,46.637,50.355Z" transform="translate(-35.637 -35.639)"/>
    <path id="Path_44" data-name="Path 44" d="M120.352,28.251a1.431,1.431,0,1,0,1.012.419A1.437,1.437,0,0,0,120.352,28.251Z" transform="translate(-103.446 -24.575)"/>
  </g>
</svg>
