<svg width="56.693000000000005" height="56.693000000000005" xmlns="http://www.w3.org/2000/svg">

 <g>
  <title>background</title>
  <rect fill="none" id="canvas_background" height="402" width="582" y="-1" x="-1"/>
 </g>
 <g>
  <title>Layer 1</title>
  <path stroke="null" fill="#007fff" id="svg_1" d="m56.46057,12.965783c-2.069807,0.920041 -4.297335,1.54064 -6.634582,1.818367c2.386392,-1.428635 4.216188,-3.691593 5.079084,-6.391142c-2.2321,1.324631 -4.703067,2.285816 -7.335184,2.804697c-2.10638,-2.244672 -5.108799,-3.648163 -8.431233,-3.648163c-6.37857,0 -11.550229,5.171659 -11.550229,11.551372c0,0.90404 0.101719,1.785222 0.299442,2.632117c-9.600428,-0.482307 -18.112808,-5.080227 -23.810205,-12.06911c-0.99433,1.705219 -1.563498,3.689307 -1.563498,5.808259c0,4.007036 2.038948,7.543194 5.138515,9.614143c-1.892656,-0.060574 -3.67445,-0.580597 -5.232233,-1.445779c-0.001143,0.048002 -0.001143,0.097147 -0.001143,0.146292c0,5.595678 3.981892,10.263315 9.266699,11.32622c-0.969186,0.262869 -1.989803,0.404589 -3.043564,0.404589c-0.745176,0 -1.468637,-0.072003 -2.173811,-0.208009c1.470923,4.588776 5.736256,7.929497 10.790196,8.022072c-3.953319,3.098424 -8.93297,4.945363 -14.345783,4.945363c-0.93147,0 -1.851511,-0.05486 -2.755551,-0.162293c5.113371,3.279003 11.184499,5.189946 17.707076,5.189946c21.247805,0 32.865466,-17.600785 32.865466,-32.865466c0,-0.500594 -0.010286,-1.000045 -0.032001,-1.496067c2.256101,-1.625215 4.215045,-3.660735 5.762543,-5.977409z"/>
 </g>
</svg>